PartA/Part1/simulation/qsim/LogicalStep_Lab4.msim.vcd
$comment
	File created using the following command:
		vcd file LogicalStep_Lab4.msim.vcd -direction
$end
$date
	Wed Mar 31 02:09:48 2021
$end
$version
	ModelSim Version 10.5b
$end
$timescale
	1ps
$end

$scope module logicalstep_lab4_top_vhd_vec_tst $end
$var wire 1 ! Clk $end
$var wire 1 " leds [15] $end
$var wire 1 # leds [14] $end
$var wire 1 $ leds [13] $end
$var wire 1 % leds [12] $end
$var wire 1 & leds [11] $end
$var wire 1 ' leds [10] $end
$var wire 1 ( leds [9] $end
$var wire 1 ) leds [8] $end
$var wire 1 * leds [7] $end
$var wire 1 + leds [6] $end
$var wire 1 , leds [5] $end
$var wire 1 - leds [4] $end
$var wire 1 . leds [3] $end
$var wire 1 / leds [2] $end
$var wire 1 0 leds [1] $end
$var wire 1 1 leds [0] $end
$var wire 1 2 pb [3] $end
$var wire 1 3 pb [2] $end
$var wire 1 4 pb [1] $end
$var wire 1 5 pb [0] $end
$var wire 1 6 rst_n $end
$var wire 1 7 sw [7] $end
$var wire 1 8 sw [6] $end
$var wire 1 9 sw [5] $end
$var wire 1 : sw [4] $end
$var wire 1 ; sw [3] $end
$var wire 1 < sw [2] $end
$var wire 1 = sw [1] $end
$var wire 1 > sw [0] $end

$scope module i1 $end
$var wire 1 ? gnd $end
$var wire 1 @ vcc $end
$var wire 1 A unknown $end
$var wire 1 B devoe $end
$var wire 1 C devclrn $end
$var wire 1 D devpor $end
$var wire 1 E ww_devoe $end
$var wire 1 F ww_devclrn $end
$var wire 1 G ww_devpor $end
$var wire 1 H ww_Clk $end
$var wire 1 I ww_rst_n $end
$var wire 1 J ww_pb [3] $end
$var wire 1 K ww_pb [2] $end
$var wire 1 L ww_pb [1] $end
$var wire 1 M ww_pb [0] $end
$var wire 1 N ww_sw [7] $end
$var wire 1 O ww_sw [6] $end
$var wire 1 P ww_sw [5] $end
$var wire 1 Q ww_sw [4] $end
$var wire 1 R ww_sw [3] $end
$var wire 1 S ww_sw [2] $end
$var wire 1 T ww_sw [1] $end
$var wire 1 U ww_sw [0] $end
$var wire 1 V ww_leds [15] $end
$var wire 1 W ww_leds [14] $end
$var wire 1 X ww_leds [13] $end
$var wire 1 Y ww_leds [12] $end
$var wire 1 Z ww_leds [11] $end
$var wire 1 [ ww_leds [10] $end
$var wire 1 \ ww_leds [9] $end
$var wire 1 ] ww_leds [8] $end
$var wire 1 ^ ww_leds [7] $end
$var wire 1 _ ww_leds [6] $end
$var wire 1 ` ww_leds [5] $end
$var wire 1 a ww_leds [4] $end
$var wire 1 b ww_leds [3] $end
$var wire 1 c ww_leds [2] $end
$var wire 1 d ww_leds [1] $end
$var wire 1 e ww_leds [0] $end
$var wire 1 f \~QUARTUS_CREATED_ADC1~_CHSEL_bus\ [4] $end
$var wire 1 g \~QUARTUS_CREATED_ADC1~_CHSEL_bus\ [3] $end
$var wire 1 h \~QUARTUS_CREATED_ADC1~_CHSEL_bus\ [2] $end
$var wire 1 i \~QUARTUS_CREATED_ADC1~_CHSEL_bus\ [1] $end
$var wire 1 j \~QUARTUS_CREATED_ADC1~_CHSEL_bus\ [0] $end
$var wire 1 k \pb[0]~inputclkctrl_INCLK_bus\ [3] $end
$var wire 1 l \pb[0]~inputclkctrl_INCLK_bus\ [2] $end
$var wire 1 m \pb[0]~inputclkctrl_INCLK_bus\ [1] $end
$var wire 1 n \pb[0]~inputclkctrl_INCLK_bus\ [0] $end
$var wire 1 o \Clk~inputclkctrl_INCLK_bus\ [3] $end
$var wire 1 p \Clk~inputclkctrl_INCLK_bus\ [2] $end
$var wire 1 q \Clk~inputclkctrl_INCLK_bus\ [1] $end
$var wire 1 r \Clk~inputclkctrl_INCLK_bus\ [0] $end
$var wire 1 s \rst_n~input_o\ $end
$var wire 1 t \pb[1]~input_o\ $end
$var wire 1 u \pb[2]~input_o\ $end
$var wire 1 v \pb[3]~input_o\ $end
$var wire 1 w \sw[2]~input_o\ $end
$var wire 1 x \sw[3]~input_o\ $end
$var wire 1 y \sw[4]~input_o\ $end
$var wire 1 z \sw[5]~input_o\ $end
$var wire 1 { \sw[6]~input_o\ $end
$var wire 1 | \sw[7]~input_o\ $end
$var wire 1 } \~QUARTUS_CREATED_GND~I_combout\ $end
$var wire 1 ~ \~QUARTUS_CREATED_UNVM~~busy\ $end
$var wire 1 !! \~QUARTUS_CREATED_ADC1~~eoc\ $end
$var wire 1 "! \leds[0]~output_o\ $end
$var wire 1 #! \leds[1]~output_o\ $end
$var wire 1 $! \leds[2]~output_o\ $end
$var wire 1 %! \leds[3]~output_o\ $end
$var wire 1 &! \leds[4]~output_o\ $end
$var wire 1 '! \leds[5]~output_o\ $end
$var wire 1 (! \leds[6]~output_o\ $end
$var wire 1 )! \leds[7]~output_o\ $end
$var wire 1 *! \leds[8]~output_o\ $end
$var wire 1 +! \leds[9]~output_o\ $end
$var wire 1 ,! \leds[10]~output_o\ $end
$var wire 1 -! \leds[11]~output_o\ $end
$var wire 1 .! \leds[12]~output_o\ $end
$var wire 1 /! \leds[13]~output_o\ $end
$var wire 1 0! \leds[14]~output_o\ $end
$var wire 1 1! \leds[15]~output_o\ $end
$var wire 1 2! \Clk~input_o\ $end
$var wire 1 3! \Clk~inputclkctrl_outclk\ $end
$var wire 1 4! \UDBC|ud_bin_counter[0]~8_combout\ $end
$var wire 1 5! \pb[0]~input_o\ $end
$var wire 1 6! \pb[0]~inputclkctrl_outclk\ $end
$var wire 1 7! \sw[0]~input_o\ $end
$var wire 1 8! \sw[1]~input_o\ $end
$var wire 1 9! \UDBC|process_0~0_combout\ $end
$var wire 1 :! \UDBC|ud_bin_counter[0]~9\ $end
$var wire 1 ;! \UDBC|ud_bin_counter[1]~10_combout\ $end
$var wire 1 <! \UDBC|ud_bin_counter[1]~11\ $end
$var wire 1 =! \UDBC|ud_bin_counter[2]~12_combout\ $end
$var wire 1 >! \UDBC|ud_bin_counter[2]~13\ $end
$var wire 1 ?! \UDBC|ud_bin_counter[3]~14_combout\ $end
$var wire 1 @! \UDBC|ud_bin_counter[3]~15\ $end
$var wire 1 A! \UDBC|ud_bin_counter[4]~16_combout\ $end
$var wire 1 B! \UDBC|ud_bin_counter[4]~17\ $end
$var wire 1 C! \UDBC|ud_bin_counter[5]~18_combout\ $end
$var wire 1 D! \UDBC|ud_bin_counter[5]~19\ $end
$var wire 1 E! \UDBC|ud_bin_counter[6]~20_combout\ $end
$var wire 1 F! \UDBC|ud_bin_counter[6]~21\ $end
$var wire 1 G! \UDBC|ud_bin_counter[7]~22_combout\ $end
$var wire 1 H! \UDBC|ud_bin_counter\ [7] $end
$var wire 1 I! \UDBC|ud_bin_counter\ [6] $end
$var wire 1 J! \UDBC|ud_bin_counter\ [5] $end
$var wire 1 K! \UDBC|ud_bin_counter\ [4] $end
$var wire 1 L! \UDBC|ud_bin_counter\ [3] $end
$var wire 1 M! \UDBC|ud_bin_counter\ [2] $end
$var wire 1 N! \UDBC|ud_bin_counter\ [1] $end
$var wire 1 O! \UDBC|ud_bin_counter\ [0] $end
$upscope $end
$upscope $end
$enddefinitions $end
#0
$dumpvars
0!
x6
0?
1@
xA
1B
1C
1D
1E
1F
1G
0H
xI
xs
xt
xu
xv
xw
xx
xy
xz
x{
x|
0}
z~
z!!
0"!
0#!
0$!
0%!
0&!
0'!
0(!
0)!
0*!
0+!
0,!
0-!
0.!
0/!
00!
01!
02!
03!
14!
05!
06!
17!
18!
19!
0:!
0;!
1<!
0=!
0>!
0?!
1@!
0A!
0B!
0C!
1D!
0E!
0F!
0G!
x2
x3
x4
05
x7
x8
x9
x:
x;
x<
1=
1>
xJ
xK
xL
0M
xN
xO
xP
xQ
xR
xS
1T
1U
0V
0W
0X
0Y
0Z
0[
0\
0]
0^
0_
0`
0a
0b
0c
0d
0e
0H!
0I!
0J!
0K!
0L!
0M!
0N!
0O!
1o
1p
1q
0r
1k
1l
1m
0n
0f
0g
0h
0i
0j
0"
0#
0$
0%
0&
0'
0(
0)
0*
0+
0,
0-
0.
0/
00
01
$end
#10000
1!
1H
12!
1r
13!
#20000
0!
0H
02!
0r
03!
#30000
1!
1H
12!
1r
13!
#40000
0!
0H
02!
0r
03!
#50000
1!
15
1H
1M
15!
12!
1n
1r
13!
16!
1O!
1"!
04!
1:!
1e
1;!
11
#60000
0!
0H
02!
0r
03!
#70000
1!
1H
12!
1r
13!
0O!
1N!
1#!
0"!
0;!
0<!
14!
0:!
1d
0e
1;!
1<!
1=!
01
10
0=!
#80000
0!
0H
02!
0r
03!
#90000
1!
1H
12!
1r
13!
1O!
1"!
04!
1:!
1e
0;!
0<!
11
1=!
#100000
0!
0H
02!
0r
03!
#110000
1!
1H
12!
1r
13!
0O!
0N!
1M!
1$!
0#!
0"!
0=!
1>!
1;!
1<!
14!
0:!
1c
0d
0e
0;!
1=!
0>!
1?!
01
00
1/
0?!
#120000
0!
0H
02!
0r
03!
#130000
1!
1H
12!
1r
13!
1O!
1"!
04!
1:!
1e
1;!
11
#140000
0!
0H
02!
0r
03!
#150000
1!
1H
12!
1r
13!
0O!
1N!
1#!
0"!
0;!
0<!
14!
0:!
1d
0e
1;!
1<!
0=!
1>!
01
10
1?!
1=!
0>!
0?!
#160000
0!
0H
02!
0r
03!
#170000
1!
1H
12!
1r
13!
1O!
1"!
04!
1:!
1e
0;!
0<!
11
0=!
1>!
1?!
#180000
0!
0H
02!
0r
03!
#190000
1!
1H
12!
1r
13!
0O!
0N!
0M!
1L!
1%!
0$!
0#!
0"!
0?!
0@!
1=!
0>!
1;!
1<!
14!
0:!
1b
0c
0d
0e
0;!
0=!
1?!
1@!
1A!
01
00
0/
1.
0A!
#200000
0!
0H
02!
0r
03!
#210000
1!
1H
12!
1r
13!
1O!
1"!
04!
1:!
1e
1;!
11
#220000
0!
0H
02!
0r
03!
#230000
1!
1H
12!
1r
13!
0O!
1N!
1#!
0"!
0;!
0<!
14!
0:!
1d
0e
1;!
1<!
1=!
01
10
0=!
#240000
0!
0H
02!
0r
03!
#250000
1!
1H
12!
1r
13!
1O!
1"!
04!
1:!
1e
0;!
0<!
11
1=!
#260000
0!
0H
02!
0r
03!
#270000
1!
1H
12!
1r
13!
0O!
0N!
1M!
1$!
0#!
0"!
0=!
1>!
1;!
1<!
14!
0:!
1c
0d
0e
0;!
1=!
0>!
0?!
0@!
01
00
1/
1A!
1?!
1@!
0A!
#280000
0!
0H
02!
0r
03!
#290000
1!
1H
12!
1r
13!
1O!
1"!
04!
1:!
1e
1;!
11
#300000
0!
0H
02!
0r
03!
#310000
1!
1H
12!
1r
13!
0O!
1N!
1#!
0"!
0;!
0<!
14!
0:!
1d
0e
1;!
1<!
0=!
1>!
01
10
0?!
0@!
1=!
0>!
1?!
1@!
1A!
0A!
#320000
0!
0H
02!
0r
03!
#330000
1!
1H
12!
1r
13!
1O!
1"!
04!
1:!
1e
0;!
0<!
11
0=!
1>!
0?!
0@!
1A!
#340000
0!
0H
02!
0r
03!
#350000
1!
1H
12!
1r
13!
0O!
0N!
0M!
0L!
1K!
1&!
0%!
0$!
0#!
0"!
0A!
1B!
1?!
1@!
1=!
0>!
1;!
1<!
14!
0:!
1a
0b
0c
0d
0e
0;!
0=!
0?!
1A!
0B!
1C!
01
00
0/
0.
1-
0C!
#360000
0!
0H
02!
0r
03!
#370000
1!
1H
12!
1r
13!
1O!
1"!
04!
1:!
1e
1;!
11
#380000
0!
0H
02!
0r
03!
#390000
1!
1H
12!
1r
13!
0O!
1N!
1#!
0"!
0;!
0<!
14!
0:!
1d
0e
1;!
1<!
1=!
01
10
0=!
#400000
0!
0H
02!
0r
03!
#410000
1!
1H
12!
1r
13!
1O!
1"!
04!
1:!
1e
0;!
0<!
11
1=!
#420000
0!
0H
02!
0r
03!
#430000
1!
1H
12!
1r
13!
0O!
0N!
1M!
1$!
0#!
0"!
0=!
1>!
1;!
1<!
14!
0:!
1c
0d
0e
0;!
1=!
0>!
1?!
01
00
1/
0?!
#440000
0!
0H
02!
0r
03!
#450000
1!
1H
12!
1r
13!
1O!
1"!
04!
1:!
1e
1;!
11
#460000
0!
0H
02!
0r
03!
#470000
1!
1H
12!
1r
13!
0O!
1N!
1#!
0"!
0;!
0<!
14!
0:!
1d
0e
1;!
1<!
0=!
1>!
01
10
1?!
1=!
0>!
0?!
#480000
0!
0H
02!
0r
03!
#490000
1!
1H
12!
1r
13!
1O!
1"!
04!
1:!
1e
0;!
0<!
11
0=!
1>!
1?!
#500000
0!
0H
02!
0r
03!
#510000
1!
1H
12!
1r
13!
0O!
0N!
0M!
1L!
1%!
0$!
0#!
0"!
0?!
0@!
1=!
0>!
1;!
1<!
14!
0:!
1b
0c
0d
0e
0;!
0=!
1?!
1@!
0A!
1B!
01
00
0/
1.
1C!
1A!
0B!
0C!
#520000
0!
0H
02!
0r
03!
#530000
1!
1H
12!
1r
13!
1O!
1"!
04!
1:!
1e
1;!
11
#540000
0!
0H
02!
0r
03!
#550000
1!
1H
12!
1r
13!
0O!
1N!
1#!
0"!
0;!
0<!
14!
0:!
1d
0e
1;!
1<!
1=!
01
10
0=!
#560000
0!
0H
02!
0r
03!
#570000
1!
1H
12!
1r
13!
1O!
1"!
04!
1:!
1e
0;!
0<!
11
1=!
#580000
0!
0H
02!
0r
03!
#590000
1!
1H
12!
1r
13!
0O!
0N!
1M!
1$!
0#!
0"!
0=!
1>!
1;!
1<!
14!
0:!
1c
0d
0e
0;!
1=!
0>!
0?!
0@!
01
00
1/
0A!
1B!
1?!
1@!
1A!
0B!
1C!
0C!
#600000
0!
0=
0H
0T
08!
02!
0r
09!
1;!
0=!
1>!
0?!
0@!
0A!
1B!
1C!
1E!
1G!
03!
0C!
0D!
1A!
1?!
0E!
1F!
0G!
#610000
1!
1H
12!
1r
13!
1O!
1N!
0M!
0$!
1#!
1"!
1=!
0>!
0;!
0<!
04!
1:!
0c
1d
1e
1;!
0=!
1>!
0?!
11
10
0/
1?!
#620000
0!
0H
02!
0r
03!
#630000
1!
1H
12!
1r
13!
0O!
0"!
14!
0:!
0e
0;!
01
#640000
0!
0H
02!
0r
03!
#650000
1!
1H
12!
1r
13!
1O!
0N!
0#!
1"!
1;!
1<!
04!
1:!
0d
1e
0;!
0<!
1=!
0>!
11
00
0?!
0=!
1>!
1?!
#660000
0!
0H
02!
0r
03!
#670000
1!
1H
12!
1r
13!
0O!
0"!
14!
0:!
0e
1;!
1<!
01
1=!
0>!
0?!
#680000
0!
0H
02!
0r
03!
#690000
1!
1H
12!
1r
13!
1O!
1N!
1M!
0L!
0%!
1$!
1#!
1"!
1?!
1@!
0=!
1>!
0;!
0<!
04!
1:!
0b
1c
1d
1e
1;!
1=!
0?!
0@!
0A!
11
10
1/
0.
1A!
#700000
0!
0H
02!
0r
03!
#710000
1!
1H
12!
1r
13!
0O!
0"!
14!
0:!
0e
0;!
01
#720000
0!
0H
02!
0r
03!
#730000
1!
1H
12!
1r
13!
1O!
0N!
0#!
1"!
1;!
1<!
04!
1:!
0d
1e
0;!
0<!
0=!
11
00
1=!
#740000
0!
0H
02!
0r
03!
#750000
1!
1H
12!
1r
13!
0O!
0"!
14!
0:!
0e
1;!
1<!
01
0=!
#760000
0!
0H
02!
0r
03!
#770000
1!
1H
12!
1r
13!
1O!
1N!
0M!
0$!
1#!
1"!
1=!
0>!
0;!
0<!
04!
1:!
0c
1d
1e
1;!
0=!
1>!
1?!
1@!
11
10
0/
0A!
0?!
0@!
1A!
#780000
0!
0H
02!
0r
03!
#790000
1!
1H
12!
1r
13!
0O!
0"!
14!
0:!
0e
0;!
01
#800000
0!
0H
02!
0r
03!
#810000
1!
1H
12!
1r
13!
1O!
0N!
0#!
1"!
1;!
1<!
04!
1:!
0d
1e
0;!
0<!
1=!
0>!
11
00
1?!
1@!
0=!
1>!
0?!
0@!
0A!
1A!
#820000
0!
0H
02!
0r
03!
#830000
1!
1H
12!
1r
13!
0O!
0"!
14!
0:!
0e
1;!
1<!
01
1=!
0>!
1?!
1@!
0A!
#840000
0!
0H
02!
0r
03!
#850000
1!
1H
12!
1r
13!
1O!
1N!
1M!
1L!
0K!
0&!
1%!
1$!
1#!
1"!
1A!
0B!
0?!
0@!
0=!
1>!
0;!
0<!
04!
1:!
0a
1b
1c
1d
1e
1;!
1=!
1?!
0A!
1B!
1C!
1D!
11
10
1/
1.
0-
1E!
0F!
0C!
0D!
0E!
1F!
1G!
0G!
#860000
0!
0H
02!
0r
03!
#870000
1!
1H
12!
1r
13!
0O!
0"!
14!
0:!
0e
0;!
01
#880000
0!
0H
02!
0r
03!
#890000
1!
1H
12!
1r
13!
1O!
0N!
0#!
1"!
1;!
1<!
04!
1:!
0d
1e
0;!
0<!
0=!
11
00
1=!
#900000
0!
0H
02!
0r
03!
#910000
1!
1H
12!
1r
13!
0O!
0"!
14!
0:!
0e
1;!
1<!
01
0=!
#920000
0!
0H
02!
0r
03!
#930000
1!
1H
12!
1r
13!
1O!
1N!
0M!
0$!
1#!
1"!
1=!
0>!
0;!
0<!
04!
1:!
0c
1d
1e
1;!
0=!
1>!
0?!
11
10
0/
1?!
#940000
0!
0H
02!
0r
03!
#950000
1!
1H
12!
1r
13!
0O!
0"!
14!
0:!
0e
0;!
01
#960000
0!
0H
02!
0r
03!
#970000
1!
1H
12!
1r
13!
1O!
0N!
0#!
1"!
1;!
1<!
04!
1:!
0d
1e
0;!
0<!
1=!
0>!
11
00
0?!
0=!
1>!
1?!
#980000
0!
0H
02!
0r
03!
#990000
1!
1H
12!
1r
13!
0O!
0"!
14!
0:!
0e
1;!
1<!
01
1=!
0>!
0?!
#999000
0!
0H
02!
0r
03!
