PartC/simulation/qsim/LogicalStep_Lab4.msim.vcd
$comment
	File created using the following command:
		vcd file LogicalStep_Lab4.msim.vcd -direction
$end
$date
	Wed Mar 31 23:37:35 2021
$end
$version
	ModelSim Version 10.5b
$end
$timescale
	1ps
$end

$scope module logicalstep_lab4_top_vhd_vec_tst $end
$var wire 1 ! Clk $end
$var wire 1 " leds [15] $end
$var wire 1 # leds [14] $end
$var wire 1 $ leds [13] $end
$var wire 1 % leds [12] $end
$var wire 1 & leds [11] $end
$var wire 1 ' leds [10] $end
$var wire 1 ( leds [9] $end
$var wire 1 ) leds [8] $end
$var wire 1 * leds [7] $end
$var wire 1 + leds [6] $end
$var wire 1 , leds [5] $end
$var wire 1 - leds [4] $end
$var wire 1 . leds [3] $end
$var wire 1 / leds [2] $end
$var wire 1 0 leds [1] $end
$var wire 1 1 leds [0] $end
$var wire 1 2 pb [3] $end
$var wire 1 3 pb [2] $end
$var wire 1 4 pb [1] $end
$var wire 1 5 pb [0] $end
$var wire 1 6 rst_n $end
$var wire 1 7 sw [7] $end
$var wire 1 8 sw [6] $end
$var wire 1 9 sw [5] $end
$var wire 1 : sw [4] $end
$var wire 1 ; sw [3] $end
$var wire 1 < sw [2] $end
$var wire 1 = sw [1] $end
$var wire 1 > sw [0] $end

$scope module i1 $end
$var wire 1 ? gnd $end
$var wire 1 @ vcc $end
$var wire 1 A unknown $end
$var wire 1 B devoe $end
$var wire 1 C devclrn $end
$var wire 1 D devpor $end
$var wire 1 E ww_devoe $end
$var wire 1 F ww_devclrn $end
$var wire 1 G ww_devpor $end
$var wire 1 H ww_Clk $end
$var wire 1 I ww_rst_n $end
$var wire 1 J ww_pb [3] $end
$var wire 1 K ww_pb [2] $end
$var wire 1 L ww_pb [1] $end
$var wire 1 M ww_pb [0] $end
$var wire 1 N ww_sw [7] $end
$var wire 1 O ww_sw [6] $end
$var wire 1 P ww_sw [5] $end
$var wire 1 Q ww_sw [4] $end
$var wire 1 R ww_sw [3] $end
$var wire 1 S ww_sw [2] $end
$var wire 1 T ww_sw [1] $end
$var wire 1 U ww_sw [0] $end
$var wire 1 V ww_leds [15] $end
$var wire 1 W ww_leds [14] $end
$var wire 1 X ww_leds [13] $end
$var wire 1 Y ww_leds [12] $end
$var wire 1 Z ww_leds [11] $end
$var wire 1 [ ww_leds [10] $end
$var wire 1 \ ww_leds [9] $end
$var wire 1 ] ww_leds [8] $end
$var wire 1 ^ ww_leds [7] $end
$var wire 1 _ ww_leds [6] $end
$var wire 1 ` ww_leds [5] $end
$var wire 1 a ww_leds [4] $end
$var wire 1 b ww_leds [3] $end
$var wire 1 c ww_leds [2] $end
$var wire 1 d ww_leds [1] $end
$var wire 1 e ww_leds [0] $end
$var wire 1 f \~QUARTUS_CREATED_ADC1~_CHSEL_bus\ [4] $end
$var wire 1 g \~QUARTUS_CREATED_ADC1~_CHSEL_bus\ [3] $end
$var wire 1 h \~QUARTUS_CREATED_ADC1~_CHSEL_bus\ [2] $end
$var wire 1 i \~QUARTUS_CREATED_ADC1~_CHSEL_bus\ [1] $end
$var wire 1 j \~QUARTUS_CREATED_ADC1~_CHSEL_bus\ [0] $end
$var wire 1 k \rst_n~inputclkctrl_INCLK_bus\ [3] $end
$var wire 1 l \rst_n~inputclkctrl_INCLK_bus\ [2] $end
$var wire 1 m \rst_n~inputclkctrl_INCLK_bus\ [1] $end
$var wire 1 n \rst_n~inputclkctrl_INCLK_bus\ [0] $end
$var wire 1 o \Clk~inputclkctrl_INCLK_bus\ [3] $end
$var wire 1 p \Clk~inputclkctrl_INCLK_bus\ [2] $end
$var wire 1 q \Clk~inputclkctrl_INCLK_bus\ [1] $end
$var wire 1 r \Clk~inputclkctrl_INCLK_bus\ [0] $end
$var wire 1 s \pb[2]~input_o\ $end
$var wire 1 t \pb[3]~input_o\ $end
$var wire 1 u \sw[0]~input_o\ $end
$var wire 1 v \sw[1]~input_o\ $end
$var wire 1 w \sw[2]~input_o\ $end
$var wire 1 x \sw[3]~input_o\ $end
$var wire 1 y \sw[4]~input_o\ $end
$var wire 1 z \sw[5]~input_o\ $end
$var wire 1 { \sw[6]~input_o\ $end
$var wire 1 | \sw[7]~input_o\ $end
$var wire 1 } \~QUARTUS_CREATED_GND~I_combout\ $end
$var wire 1 ~ \~QUARTUS_CREATED_UNVM~~busy\ $end
$var wire 1 !! \~QUARTUS_CREATED_ADC1~~eoc\ $end
$var wire 1 "! \leds[0]~output_o\ $end
$var wire 1 #! \leds[1]~output_o\ $end
$var wire 1 $! \leds[2]~output_o\ $end
$var wire 1 %! \leds[3]~output_o\ $end
$var wire 1 &! \leds[4]~output_o\ $end
$var wire 1 '! \leds[5]~output_o\ $end
$var wire 1 (! \leds[6]~output_o\ $end
$var wire 1 )! \leds[7]~output_o\ $end
$var wire 1 *! \leds[8]~output_o\ $end
$var wire 1 +! \leds[9]~output_o\ $end
$var wire 1 ,! \leds[10]~output_o\ $end
$var wire 1 -! \leds[11]~output_o\ $end
$var wire 1 .! \leds[12]~output_o\ $end
$var wire 1 /! \leds[13]~output_o\ $end
$var wire 1 0! \leds[14]~output_o\ $end
$var wire 1 1! \leds[15]~output_o\ $end
$var wire 1 2! \pb[0]~input_o\ $end
$var wire 1 3! \Clk~input_o\ $end
$var wire 1 4! \Clk~inputclkctrl_outclk\ $end
$var wire 1 5! \pb[1]~input_o\ $end
$var wire 1 6! \rst_n~input_o\ $end
$var wire 1 7! \rst_n~inputclkctrl_outclk\ $end
$var wire 1 8! \Extender_SM|previous_extender_toggle~q\ $end
$var wire 1 9! \Extender_SM|Selector1~0_combout\ $end
$var wire 1 :! \Extender_bsr|sreg~0_combout\ $end
$var wire 1 ;! \Extender_SM|Clk_en~0_combout\ $end
$var wire 1 <! \Extender_bsr|sreg~3_combout\ $end
$var wire 1 =! \Extender_bsr|sreg~2_combout\ $end
$var wire 1 >! \Extender_bsr|sreg~1_combout\ $end
$var wire 1 ?! \Extender_SM|Selector0~0_combout\ $end
$var wire 1 @! \Extender_SM|Selector3~0_combout\ $end
$var wire 1 A! \Extender_SM|current_state.S3~q\ $end
$var wire 1 B! \Extender_SM|Selector0~1_combout\ $end
$var wire 1 C! \Extender_SM|current_state.S0~q\ $end
$var wire 1 D! \Extender_SM|Selector2~0_combout\ $end
$var wire 1 E! \Extender_SM|Selector1~1_combout\ $end
$var wire 1 F! \Extender_SM|current_state.S1~q\ $end
$var wire 1 G! \Extender_SM|Selector2~1_combout\ $end
$var wire 1 H! \Extender_SM|current_state.S2~q\ $end
$var wire 1 I! \g_controller|sreg~0_combout\ $end
$var wire 1 J! \g_controller|sreg~q\ $end
$var wire 1 K! \Extender_bsr|sreg\ [3] $end
$var wire 1 L! \Extender_bsr|sreg\ [2] $end
$var wire 1 M! \Extender_bsr|sreg\ [1] $end
$var wire 1 N! \Extender_bsr|sreg\ [0] $end
$var wire 1 O! \ALT_INV_pb[0]~input_o\ $end
$upscope $end
$upscope $end
$enddefinitions $end
#0
$dumpvars
0!
06
0?
1@
xA
1B
1C
1D
1E
1F
1G
0H
0I
xs
xt
xu
xv
xw
xx
xy
xz
x{
x|
0}
z~
z!!
0"!
0#!
0$!
0%!
0&!
0'!
0(!
0)!
0*!
0+!
0,!
0-!
0.!
0/!
00!
01!
02!
03!
04!
05!
06!
07!
08!
09!
0:!
0;!
1<!
0=!
0>!
1?!
0@!
0A!
0B!
0C!
0D!
0E!
0F!
0G!
0H!
0I!
0J!
1O!
x2
x3
04
05
xJ
xK
0L
0M
xN
xO
xP
xQ
xR
xS
xT
xU
0V
0W
0X
0Y
0Z
0[
0\
0]
0^
0_
0`
0a
0b
0c
0d
0e
0K!
0L!
0M!
0N!
1o
1p
1q
0r
1k
1l
1m
0n
0f
0g
0h
0i
0j
0"
0#
0$
0%
0&
0'
0(
0)
0*
0+
0,
0-
0.
0/
00
01
x7
x8
x9
x:
x;
x<
x=
x>
$end
#10000
1!
1H
13!
1r
14!
#20000
0!
0H
03!
0r
04!
#30000
1!
1H
13!
1r
14!
#40000
0!
16
0H
1I
16!
03!
1n
0r
04!
17!
#50000
1!
1H
13!
1r
14!
#60000
0!
14
0H
1L
15!
03!
0r
04!
#70000
1!
1H
13!
1r
14!
18!
#80000
0!
04
0H
0L
05!
03!
0r
19!
1B!
1E!
04!
#90000
1!
1H
13!
1r
14!
08!
1C!
1F!
1;!
09!
#100000
0!
0H
03!
0r
04!
#110000
1!
1H
13!
1r
14!
1K!
1)!
1=!
0?!
1^
1*
#120000
0!
14
0H
1L
15!
03!
0r
04!
#130000
1!
1H
13!
1r
14!
18!
1L!
1(!
1>!
1_
1+
#140000
0!
04
0H
0L
05!
03!
0r
19!
04!
#150000
1!
1H
13!
1r
14!
08!
1M!
1'!
1:!
09!
1`
1,
#160000
0!
0H
03!
0r
04!
#170000
1!
1H
13!
1r
14!
1N!
1&!
1D!
1a
0E!
1G!
1-
#180000
0!
15
0H
1M
12!
03!
0O!
0r
04!
#190000
1!
1H
13!
1r
14!
0F!
1H!
0;!
1I!
0:!
#200000
0!
05
0H
0M
02!
03!
1O!
0r
1J!
1%!
04!
0I!
1b
1.
#210000
1!
1H
13!
1r
14!
#220000
0!
0H
03!
0r
04!
#230000
1!
1H
13!
1r
14!
#240000
0!
0H
03!
0r
04!
#250000
1!
1H
13!
1r
14!
#260000
0!
0H
03!
0r
04!
#270000
1!
1H
13!
1r
14!
#280000
0!
0H
03!
0r
04!
#290000
1!
1H
13!
1r
14!
#300000
0!
0H
03!
0r
04!
#310000
1!
1H
13!
1r
14!
#320000
0!
0H
03!
0r
04!
#330000
1!
1H
13!
1r
14!
#340000
0!
0H
03!
0r
04!
#350000
1!
1H
13!
1r
14!
#360000
0!
0H
03!
0r
04!
#370000
1!
1H
13!
1r
14!
#380000
0!
0H
03!
0r
04!
#390000
1!
1H
13!
1r
14!
#400000
0!
0H
03!
0r
04!
#410000
1!
1H
13!
1r
14!
#420000
0!
0H
03!
0r
04!
#430000
1!
1H
13!
1r
14!
#440000
0!
0H
03!
0r
04!
#450000
1!
1H
13!
1r
14!
#460000
0!
0H
03!
0r
04!
#470000
1!
1H
13!
1r
14!
#480000
0!
0H
03!
0r
04!
#490000
1!
1H
13!
1r
14!
#500000
0!
0H
03!
0r
04!
#510000
1!
1H
13!
1r
14!
#520000
0!
0H
03!
0r
04!
#530000
1!
1H
13!
1r
14!
#540000
0!
0H
03!
0r
04!
#550000
1!
1H
13!
1r
14!
#560000
0!
0H
03!
0r
04!
#570000
1!
1H
13!
1r
14!
#580000
0!
0H
03!
0r
04!
#590000
1!
1H
13!
1r
14!
#600000
0!
0H
03!
0r
04!
#610000
1!
1H
13!
1r
14!
#620000
0!
0H
03!
0r
04!
#630000
1!
1H
13!
1r
14!
#640000
0!
0H
03!
0r
04!
#650000
1!
1H
13!
1r
14!
#660000
0!
0H
03!
0r
04!
#670000
1!
1H
13!
1r
14!
#680000
0!
0H
03!
0r
04!
#690000
1!
1H
13!
1r
14!
#700000
0!
0H
03!
0r
04!
#710000
1!
1H
13!
1r
14!
#720000
0!
0H
03!
0r
04!
#730000
1!
1H
13!
1r
14!
#740000
0!
0H
03!
0r
04!
#750000
1!
1H
13!
1r
14!
#760000
0!
0H
03!
0r
04!
#770000
1!
1H
13!
1r
14!
#780000
0!
0H
03!
0r
04!
#790000
1!
1H
13!
1r
14!
#800000
0!
0H
03!
0r
04!
#810000
1!
1H
13!
1r
14!
#820000
0!
0H
03!
0r
04!
#830000
1!
1H
13!
1r
14!
#840000
0!
0H
03!
0r
04!
#850000
1!
1H
13!
1r
14!
#860000
0!
0H
03!
0r
04!
#870000
1!
1H
13!
1r
14!
#880000
0!
0H
03!
0r
04!
#890000
1!
1H
13!
1r
14!
#900000
0!
0H
03!
0r
04!
#910000
1!
1H
13!
1r
14!
#920000
0!
0H
03!
0r
04!
#930000
1!
1H
13!
1r
14!
#940000
0!
0H
03!
0r
04!
#950000
1!
1H
13!
1r
14!
#960000
0!
0H
03!
0r
04!
#970000
1!
1H
13!
1r
14!
#980000
0!
0H
03!
0r
04!
#990000
1!
1H
13!
1r
14!
